…
# Summary by nature and initiation method
get_pix_summary(database = "202509", group_by = c("NATUREZA", "FORMAINICIACAO"))
#> 
#> ── Fetching PIX Transaction Summary ──
#> 
#> ── Fetching PIX Transaction Statistics ──
#> 
#> ℹ URL: https://olinda.bcb.gov.br/olinda/servico/Pix_DadosAbertos/versao/v1/odata/EstatisticasTransacoesPix(Database=@Database)?$format=json&@Database='202509'
#> ✔ Retrieved 53191 records
#> ✔ Aggregated into 60 groups
#> # A tibble: 60 × 6
#>    NATUREZA FORMAINICIACAO total_value total_count avg_value n_records
#>    <chr>    <chr>                <dbl>       <dbl>     <dbl>     <int>
#>  1 B2B      MANU               3.29e12   309752158   10608.        150
#>  2 P2P      DICT               2.27e12  7244649589     313.       6378
#>  3 B2B      DICT               1.80e12   253233949    7096.        144
#>  4 B2P      DICT               9.91e11  1899866271     522.        942
#>  5 P2B      QRDN               6.21e11  9540673851      65.1      2233
#>  6 P2P      MANU               6.15e11  2219072261     277.       5599
#>  7 P2B      DICT               4.71e11   746199559     632.       1032
#>  8 B2P      MANU               3.62e11   323488247    1118.        883
#>  9 B2B      QRDN               2.14e11   318512083     671.        293
#> 10 P2B      QRES               1.47e11  1048823015     140.       1444
#> # ℹ 50 more rows
…
